module first_project

go 1.20

require (
	github.com/go-sql-driver/mysql v1.7.0
	github.com/labstack/echo/v4 v4.10.2
)

require (
	github.com/dgrijalva/jwt-go v3.2.0+incompatible // indirect
	github.com/golang-jwt/jwt v3.2.2+incompatible // indirect
	github.com/labstack/echo v3.3.10+incompatible // indirect
	github.com/labstack/gommon v0.4.0 // indirect
	github.com/mattn/go-colorable v0.1.13 // indirect
	github.com/mattn/go-isatty v0.0.17 // indirect
	github.com/valyala/bytebufferpool v1.0.0 // indirect
	github.com/valyala/fasttemplate v1.2.2 // indirect
	golang.org/x/crypto v0.6.0 // indirect
	golang.org/x/net v0.7.0 // indirect
	golang.org/x/sys v0.5.0 // indirect
	golang.org/x/text v0.7.0 // indirect
	golang.org/x/time v0.3.0 // indirect
)
